ISSS-WangYuhui - Take Home Exercise 1: Creating data visualisation beyond default
…
    Transacted.Price.... = as.numeric(Transacted.Price....),
    Sale.Date = as.Date(Sale.Date),
    Type.of.Sale = as.character(Type.of.Sale),
    Type.of.Area = as.character(Type.of.Area),
    Area..SQM. = as.numeric(Area..SQM.),
    Unit.Price....PSM. = as.numeric(Unit.Price....PSM.),
    Property.Type = as.character(Property.Type),
    Completion.Date = ifelse(Completion.Date == "Uncompleted", 2030, as.numeric(Completion.Date)),
    Purchaser.Address.Indicator = as.character(Purchaser.Address.Indicator),
    Planning.Region = as.character(Planning.Region),
    Planning.Area = as.character(Planning.Area)
  )
print(rpm_processed)

# A tibble: 26,806 × 12
   Project.Name        Transacted.Price.... Sale.Date  Type.of.Sale Type.of.Area
   <chr>                              <dbl> <date>     <chr>        <chr>       
 1 THE LANDMARK                     2726888 2024-01-01 New Sale     Strata      
 2 POLLEN COLLECTION                3850000 2024-01-01 New Sale     Land        
 3 SKY EDEN@BEDOK                   2346000 2024-01-01 New Sale     Strata      
 4 TERRA HILL                       2190000 2024-01-01 New Sale     Strata      
 5 PINETREE HILL                    1954000 2024-01-01 New Sale     Strata      
 6 THE RESERVE RESIDE…              3412201 2024-01-01 New Sale     Strata      
 7 SUMMER VILLAS                    2960000 2024-01-02 Resale       Strata      
 8 THE MINTON                       1840000 2024-01-02 Resale       Strata      
 9 SEMBAWANG HILLS ES…              4200000 2024-01-02 Resale       Land        
10 NV RESIDENCES                    1350000 2024-01-02 Resale       Strata      
# ℹ 26,796 more rows
# ℹ 7 more variables: Area..SQM. <dbl>, Unit.Price....PSM. <dbl>,
#   Property.Type <chr>, Completion.Date <dbl>,
#   Purchaser.Address.Indicator <chr>, Planning.Region <chr>,
#   Planning.Area <chr>
…
